G04 #@! TF.GenerationSoftware,KiCad,Pcbnew,5.1.5*
G04 #@! TF.CreationDate,2019-12-08T14:23:56+01:00*
G04 #@! TF.ProjectId,LightPower,4c696768-7450-46f7-9765-722e6b696361,rev?*
G04 #@! TF.SameCoordinates,Original*
G04 #@! TF.FileFunction,Copper,L2,Bot*
G04 #@! TF.FilePolarity,Positive*
%FSLAX46Y46*%
G04 Gerber Fmt 4.6, Leading zero omitted, Abs format (unit mm)*
G04 Created by KiCad (PCBNEW 5.1.5) date 2019-12-08 14:23:56*
%MOMM*%
%LPD*%
G04 APERTURE LIST*
%ADD10C,5.600000*%
%ADD11C,0.100000*%
%ADD12R,3.500000X3.500000*%
%ADD13C,3.000000*%
%ADD14R,3.000000X3.000000*%
%ADD15C,2.540000*%
%ADD16C,1.950000*%
%ADD17C,3.000000*%
%ADD18C,0.254000*%
G04 APERTURE END LIST*
D10*
X43180000Y-52070000D03*
X17780000Y-52070000D03*
X17780000Y-17780000D03*
X43180000Y-17780000D03*
G04 #@! TA.AperFunction,ComponentPad*
D11*
G36*
X36980765Y-34194213D02*
G01*
X37065704Y-34206813D01*
X37148999Y-34227677D01*
X37229848Y-34256605D01*
X37307472Y-34293319D01*
X37381124Y-34337464D01*
X37450094Y-34388616D01*
X37513718Y-34446282D01*
X37571384Y-34509906D01*
X37622536Y-34578876D01*
X37666681Y-34652528D01*
X37703395Y-34730152D01*
X37732323Y-34811001D01*
X37753187Y-34894296D01*
X37765787Y-34979235D01*
X37770000Y-35065000D01*
X37770000Y-36815000D01*
X37765787Y-36900765D01*
X37753187Y-36985704D01*
X37732323Y-37068999D01*
X37703395Y-37149848D01*
X37666681Y-37227472D01*
X37622536Y-37301124D01*
X37571384Y-37370094D01*
X37513718Y-37433718D01*
X37450094Y-37491384D01*
X37381124Y-37542536D01*
X37307472Y-37586681D01*
X37229848Y-37623395D01*
X37148999Y-37652323D01*
X37065704Y-37673187D01*
X36980765Y-37685787D01*
X36895000Y-37690000D01*
X35145000Y-37690000D01*
X35059235Y-37685787D01*
X34974296Y-37673187D01*
X34891001Y-37652323D01*
X34810152Y-37623395D01*
X34732528Y-37586681D01*
X34658876Y-37542536D01*
X34589906Y-37491384D01*
X34526282Y-37433718D01*
X34468616Y-37370094D01*
X34417464Y-37301124D01*
X34373319Y-37227472D01*
X34336605Y-37149848D01*
X34307677Y-37068999D01*
X34286813Y-36985704D01*
X34274213Y-36900765D01*
X34270000Y-36815000D01*
X34270000Y-35065000D01*
X34274213Y-34979235D01*
X34286813Y-34894296D01*
X34307677Y-34811001D01*
X34336605Y-34730152D01*
X34373319Y-34652528D01*
X34417464Y-34578876D01*
X34468616Y-34509906D01*
X34526282Y-34446282D01*
X34589906Y-34388616D01*
X34658876Y-34337464D01*
X34732528Y-34293319D01*
X34810152Y-34256605D01*
X34891001Y-34227677D01*
X34974296Y-34206813D01*
X35059235Y-34194213D01*
X35145000Y-34190000D01*
X36895000Y-34190000D01*
X36980765Y-34194213D01*
G37*
G04 #@! TD.AperFunction*
G04 #@! TA.AperFunction,ComponentPad*
G36*
X39843513Y-38893611D02*
G01*
X39916318Y-38904411D01*
X39987714Y-38922295D01*
X40057013Y-38947090D01*
X40123548Y-38978559D01*
X40186678Y-39016398D01*
X40245795Y-39060242D01*
X40300330Y-39109670D01*
X40349758Y-39164205D01*
X40393602Y-39223322D01*
X40431441Y-39286452D01*
X40462910Y-39352987D01*
X40487705Y-39422286D01*
X40505589Y-39493682D01*
X40516389Y-39566487D01*
X40520000Y-39640000D01*
X40520000Y-41640000D01*
X40516389Y-41713513D01*
X40505589Y-41786318D01*
X40487705Y-41857714D01*
X40462910Y-41927013D01*
X40431441Y-41993548D01*
X40393602Y-42056678D01*
X40349758Y-42115795D01*
X40300330Y-42170330D01*
X40245795Y-42219758D01*
X40186678Y-42263602D01*
X40123548Y-42301441D01*
X40057013Y-42332910D01*
X39987714Y-42357705D01*
X39916318Y-42375589D01*
X39843513Y-42386389D01*
X39770000Y-42390000D01*
X38270000Y-42390000D01*
X38196487Y-42386389D01*
X38123682Y-42375589D01*
X38052286Y-42357705D01*
X37982987Y-42332910D01*
X37916452Y-42301441D01*
X37853322Y-42263602D01*
X37794205Y-42219758D01*
X37739670Y-42170330D01*
X37690242Y-42115795D01*
X37646398Y-42056678D01*
X37608559Y-41993548D01*
X37577090Y-41927013D01*
X37552295Y-41857714D01*
X37534411Y-41786318D01*
X37523611Y-41713513D01*
X37520000Y-41640000D01*
X37520000Y-39640000D01*
X37523611Y-39566487D01*
X37534411Y-39493682D01*
X37552295Y-39422286D01*
X37577090Y-39352987D01*
X37608559Y-39286452D01*
X37646398Y-39223322D01*
X37690242Y-39164205D01*
X37739670Y-39109670D01*
X37794205Y-39060242D01*
X37853322Y-39016398D01*
X37916452Y-38978559D01*
X37982987Y-38947090D01*
X38052286Y-38922295D01*
X38123682Y-38904411D01*
X38196487Y-38893611D01*
X38270000Y-38890000D01*
X39770000Y-38890000D01*
X39843513Y-38893611D01*
G37*
G04 #@! TD.AperFunction*
D12*
X33020000Y-40640000D03*
G04 #@! TA.AperFunction,ComponentPad*
D11*
G36*
X36980765Y-22764213D02*
G01*
X37065704Y-22776813D01*
X37148999Y-22797677D01*
X37229848Y-22826605D01*
X37307472Y-22863319D01*
X37381124Y-22907464D01*
X37450094Y-22958616D01*
X37513718Y-23016282D01*
X37571384Y-23079906D01*
X37622536Y-23148876D01*
X37666681Y-23222528D01*
X37703395Y-23300152D01*
X37732323Y-23381001D01*
X37753187Y-23464296D01*
X37765787Y-23549235D01*
X37770000Y-23635000D01*
X37770000Y-25385000D01*
X37765787Y-25470765D01*
X37753187Y-25555704D01*
X37732323Y-25638999D01*
X37703395Y-25719848D01*
X37666681Y-25797472D01*
X37622536Y-25871124D01*
X37571384Y-25940094D01*
X37513718Y-26003718D01*
X37450094Y-26061384D01*
X37381124Y-26112536D01*
X37307472Y-26156681D01*
X37229848Y-26193395D01*
X37148999Y-26222323D01*
X37065704Y-26243187D01*
X36980765Y-26255787D01*
X36895000Y-26260000D01*
X35145000Y-26260000D01*
X35059235Y-26255787D01*
X34974296Y-26243187D01*
X34891001Y-26222323D01*
X34810152Y-26193395D01*
X34732528Y-26156681D01*
X34658876Y-26112536D01*
X34589906Y-26061384D01*
X34526282Y-26003718D01*
X34468616Y-25940094D01*
X34417464Y-25871124D01*
X34373319Y-25797472D01*
X34336605Y-25719848D01*
X34307677Y-25638999D01*
X34286813Y-25555704D01*
X34274213Y-25470765D01*
X34270000Y-25385000D01*
X34270000Y-23635000D01*
X34274213Y-23549235D01*
X34286813Y-23464296D01*
X34307677Y-23381001D01*
X34336605Y-23300152D01*
X34373319Y-23222528D01*
X34417464Y-23148876D01*
X34468616Y-23079906D01*
X34526282Y-23016282D01*
X34589906Y-22958616D01*
X34658876Y-22907464D01*
X34732528Y-22863319D01*
X34810152Y-22826605D01*
X34891001Y-22797677D01*
X34974296Y-22776813D01*
X35059235Y-22764213D01*
X35145000Y-22760000D01*
X36895000Y-22760000D01*
X36980765Y-22764213D01*
G37*
G04 #@! TD.AperFunction*
G04 #@! TA.AperFunction,ComponentPad*
G36*
X39843513Y-27463611D02*
G01*
X39916318Y-27474411D01*
X39987714Y-27492295D01*
X40057013Y-27517090D01*
X40123548Y-27548559D01*
X40186678Y-27586398D01*
X40245795Y-27630242D01*
X40300330Y-27679670D01*
X40349758Y-27734205D01*
X40393602Y-27793322D01*
X40431441Y-27856452D01*
X40462910Y-27922987D01*
X40487705Y-27992286D01*
X40505589Y-28063682D01*
X40516389Y-28136487D01*
X40520000Y-28210000D01*
X40520000Y-30210000D01*
X40516389Y-30283513D01*
X40505589Y-30356318D01*
X40487705Y-30427714D01*
X40462910Y-30497013D01*
X40431441Y-30563548D01*
X40393602Y-30626678D01*
X40349758Y-30685795D01*
X40300330Y-30740330D01*
X40245795Y-30789758D01*
X40186678Y-30833602D01*
X40123548Y-30871441D01*
X40057013Y-30902910D01*
X39987714Y-30927705D01*
X39916318Y-30945589D01*
X39843513Y-30956389D01*
X39770000Y-30960000D01*
X38270000Y-30960000D01*
X38196487Y-30956389D01*
X38123682Y-30945589D01*
X38052286Y-30927705D01*
X37982987Y-30902910D01*
X37916452Y-30871441D01*
X37853322Y-30833602D01*
X37794205Y-30789758D01*
X37739670Y-30740330D01*
X37690242Y-30685795D01*
X37646398Y-30626678D01*
X37608559Y-30563548D01*
X37577090Y-30497013D01*
X37552295Y-30427714D01*
X37534411Y-30356318D01*
X37523611Y-30283513D01*
X37520000Y-30210000D01*
X37520000Y-28210000D01*
X37523611Y-28136487D01*
X37534411Y-28063682D01*
X37552295Y-27992286D01*
X37577090Y-27922987D01*
X37608559Y-27856452D01*
X37646398Y-27793322D01*
X37690242Y-27734205D01*
X37739670Y-27679670D01*
X37794205Y-27630242D01*
X37853322Y-27586398D01*
X37916452Y-27548559D01*
X37982987Y-27517090D01*
X38052286Y-27492295D01*
X38123682Y-27474411D01*
X38196487Y-27463611D01*
X38270000Y-27460000D01*
X39770000Y-27460000D01*
X39843513Y-27463611D01*
G37*
G04 #@! TD.AperFunction*
D12*
X33020000Y-29210000D03*
D13*
X33020000Y-52070000D03*
D14*
X27940000Y-52070000D03*
D13*
X33020000Y-17780000D03*
D14*
X27940000Y-17780000D03*
G04 #@! TA.AperFunction,ComponentPad*
D11*
G36*
X25900765Y-43594213D02*
G01*
X25985704Y-43606813D01*
X26068999Y-43627677D01*
X26149848Y-43656605D01*
X26227472Y-43693319D01*
X26301124Y-43737464D01*
X26370094Y-43788616D01*
X26433718Y-43846282D01*
X26491384Y-43909906D01*
X26542536Y-43978876D01*
X26586681Y-44052528D01*
X26623395Y-44130152D01*
X26652323Y-44211001D01*
X26673187Y-44294296D01*
X26685787Y-44379235D01*
X26690000Y-44465000D01*
X26690000Y-46215000D01*
X26685787Y-46300765D01*
X26673187Y-46385704D01*
X26652323Y-46468999D01*
X26623395Y-46549848D01*
X26586681Y-46627472D01*
X26542536Y-46701124D01*
X26491384Y-46770094D01*
X26433718Y-46833718D01*
X26370094Y-46891384D01*
X26301124Y-46942536D01*
X26227472Y-46986681D01*
X26149848Y-47023395D01*
X26068999Y-47052323D01*
X25985704Y-47073187D01*
X25900765Y-47085787D01*
X25815000Y-47090000D01*
X24065000Y-47090000D01*
X23979235Y-47085787D01*
X23894296Y-47073187D01*
X23811001Y-47052323D01*
X23730152Y-47023395D01*
X23652528Y-46986681D01*
X23578876Y-46942536D01*
X23509906Y-46891384D01*
X23446282Y-46833718D01*
X23388616Y-46770094D01*
X23337464Y-46701124D01*
X23293319Y-46627472D01*
X23256605Y-46549848D01*
X23227677Y-46468999D01*
X23206813Y-46385704D01*
X23194213Y-46300765D01*
X23190000Y-46215000D01*
X23190000Y-44465000D01*
X23194213Y-44379235D01*
X23206813Y-44294296D01*
X23227677Y-44211001D01*
X23256605Y-44130152D01*
X23293319Y-44052528D01*
X23337464Y-43978876D01*
X23388616Y-43909906D01*
X23446282Y-43846282D01*
X23509906Y-43788616D01*
X23578876Y-43737464D01*
X23652528Y-43693319D01*
X23730152Y-43656605D01*
X23811001Y-43627677D01*
X23894296Y-43606813D01*
X23979235Y-43594213D01*
X24065000Y-43590000D01*
X25815000Y-43590000D01*
X25900765Y-43594213D01*
G37*
G04 #@! TD.AperFunction*
G04 #@! TA.AperFunction,ComponentPad*
G36*
X22763513Y-38893611D02*
G01*
X22836318Y-38904411D01*
X22907714Y-38922295D01*
X22977013Y-38947090D01*
X23043548Y-38978559D01*
X23106678Y-39016398D01*
X23165795Y-39060242D01*
X23220330Y-39109670D01*
X23269758Y-39164205D01*
X23313602Y-39223322D01*
X23351441Y-39286452D01*
X23382910Y-39352987D01*
X23407705Y-39422286D01*
X23425589Y-39493682D01*
X23436389Y-39566487D01*
X23440000Y-39640000D01*
X23440000Y-41640000D01*
X23436389Y-41713513D01*
X23425589Y-41786318D01*
X23407705Y-41857714D01*
X23382910Y-41927013D01*
X23351441Y-41993548D01*
X23313602Y-42056678D01*
X23269758Y-42115795D01*
X23220330Y-42170330D01*
X23165795Y-42219758D01*
X23106678Y-42263602D01*
X23043548Y-42301441D01*
X22977013Y-42332910D01*
X22907714Y-42357705D01*
X22836318Y-42375589D01*
X22763513Y-42386389D01*
X22690000Y-42390000D01*
X21190000Y-42390000D01*
X21116487Y-42386389D01*
X21043682Y-42375589D01*
X20972286Y-42357705D01*
X20902987Y-42332910D01*
X20836452Y-42301441D01*
X20773322Y-42263602D01*
X20714205Y-42219758D01*
X20659670Y-42170330D01*
X20610242Y-42115795D01*
X20566398Y-42056678D01*
X20528559Y-41993548D01*
X20497090Y-41927013D01*
X20472295Y-41857714D01*
X20454411Y-41786318D01*
X20443611Y-41713513D01*
X20440000Y-41640000D01*
X20440000Y-39640000D01*
X20443611Y-39566487D01*
X20454411Y-39493682D01*
X20472295Y-39422286D01*
X20497090Y-39352987D01*
X20528559Y-39286452D01*
X20566398Y-39223322D01*
X20610242Y-39164205D01*
X20659670Y-39109670D01*
X20714205Y-39060242D01*
X20773322Y-39016398D01*
X20836452Y-38978559D01*
X20902987Y-38947090D01*
X20972286Y-38922295D01*
X21043682Y-38904411D01*
X21116487Y-38893611D01*
X21190000Y-38890000D01*
X22690000Y-38890000D01*
X22763513Y-38893611D01*
G37*
G04 #@! TD.AperFunction*
D12*
X27940000Y-40640000D03*
G04 #@! TA.AperFunction,ComponentPad*
D11*
G36*
X25900765Y-32164213D02*
G01*
X25985704Y-32176813D01*
X26068999Y-32197677D01*
X26149848Y-32226605D01*
X26227472Y-32263319D01*
X26301124Y-32307464D01*
X26370094Y-32358616D01*
X26433718Y-32416282D01*
X26491384Y-32479906D01*
X26542536Y-32548876D01*
X26586681Y-32622528D01*
X26623395Y-32700152D01*
X26652323Y-32781001D01*
X26673187Y-32864296D01*
X26685787Y-32949235D01*
X26690000Y-33035000D01*
X26690000Y-34785000D01*
X26685787Y-34870765D01*
X26673187Y-34955704D01*
X26652323Y-35038999D01*
X26623395Y-35119848D01*
X26586681Y-35197472D01*
X26542536Y-35271124D01*
X26491384Y-35340094D01*
X26433718Y-35403718D01*
X26370094Y-35461384D01*
X26301124Y-35512536D01*
X26227472Y-35556681D01*
X26149848Y-35593395D01*
X26068999Y-35622323D01*
X25985704Y-35643187D01*
X25900765Y-35655787D01*
X25815000Y-35660000D01*
X24065000Y-35660000D01*
X23979235Y-35655787D01*
X23894296Y-35643187D01*
X23811001Y-35622323D01*
X23730152Y-35593395D01*
X23652528Y-35556681D01*
X23578876Y-35512536D01*
X23509906Y-35461384D01*
X23446282Y-35403718D01*
X23388616Y-35340094D01*
X23337464Y-35271124D01*
X23293319Y-35197472D01*
X23256605Y-35119848D01*
X23227677Y-35038999D01*
X23206813Y-34955704D01*
X23194213Y-34870765D01*
X23190000Y-34785000D01*
X23190000Y-33035000D01*
X23194213Y-32949235D01*
X23206813Y-32864296D01*
X23227677Y-32781001D01*
X23256605Y-32700152D01*
X23293319Y-32622528D01*
X23337464Y-32548876D01*
X23388616Y-32479906D01*
X23446282Y-32416282D01*
X23509906Y-32358616D01*
X23578876Y-32307464D01*
X23652528Y-32263319D01*
X23730152Y-32226605D01*
X23811001Y-32197677D01*
X23894296Y-32176813D01*
X23979235Y-32164213D01*
X24065000Y-32160000D01*
X25815000Y-32160000D01*
X25900765Y-32164213D01*
G37*
G04 #@! TD.AperFunction*
G04 #@! TA.AperFunction,ComponentPad*
G36*
X22763513Y-27463611D02*
G01*
X22836318Y-27474411D01*
X22907714Y-27492295D01*
X22977013Y-27517090D01*
X23043548Y-27548559D01*
X23106678Y-27586398D01*
X23165795Y-27630242D01*
X23220330Y-27679670D01*
X23269758Y-27734205D01*
X23313602Y-27793322D01*
X23351441Y-27856452D01*
X23382910Y-27922987D01*
X23407705Y-27992286D01*
X23425589Y-28063682D01*
X23436389Y-28136487D01*
X23440000Y-28210000D01*
X23440000Y-30210000D01*
X23436389Y-30283513D01*
X23425589Y-30356318D01*
X23407705Y-30427714D01*
X23382910Y-30497013D01*
X23351441Y-30563548D01*
X23313602Y-30626678D01*
X23269758Y-30685795D01*
X23220330Y-30740330D01*
X23165795Y-30789758D01*
X23106678Y-30833602D01*
X23043548Y-30871441D01*
X22977013Y-30902910D01*
X22907714Y-30927705D01*
X22836318Y-30945589D01*
X22763513Y-30956389D01*
X22690000Y-30960000D01*
X21190000Y-30960000D01*
X21116487Y-30956389D01*
X21043682Y-30945589D01*
X20972286Y-30927705D01*
X20902987Y-30902910D01*
X20836452Y-30871441D01*
X20773322Y-30833602D01*
X20714205Y-30789758D01*
X20659670Y-30740330D01*
X20610242Y-30685795D01*
X20566398Y-30626678D01*
X20528559Y-30563548D01*
X20497090Y-30497013D01*
X20472295Y-30427714D01*
X20454411Y-30356318D01*
X20443611Y-30283513D01*
X20440000Y-30210000D01*
X20440000Y-28210000D01*
X20443611Y-28136487D01*
X20454411Y-28063682D01*
X20472295Y-27992286D01*
X20497090Y-27922987D01*
X20528559Y-27856452D01*
X20566398Y-27793322D01*
X20610242Y-27734205D01*
X20659670Y-27679670D01*
X20714205Y-27630242D01*
X20773322Y-27586398D01*
X20836452Y-27548559D01*
X20902987Y-27517090D01*
X20972286Y-27492295D01*
X21043682Y-27474411D01*
X21116487Y-27463611D01*
X21190000Y-27460000D01*
X22690000Y-27460000D01*
X22763513Y-27463611D01*
G37*
G04 #@! TD.AperFunction*
D12*
X27940000Y-29210000D03*
D15*
X27940000Y-17780000D02*
X27940000Y-29210000D01*
X33020000Y-50800000D02*
X33020000Y-40640000D01*
X28160010Y-29430010D02*
X27940000Y-29210000D01*
X27940000Y-40640000D02*
X29210000Y-40640000D01*
X30480000Y-40640000D02*
X33020000Y-40640000D01*
X27940000Y-40640000D02*
X30480000Y-40640000D01*
X30480000Y-29210000D02*
X33020000Y-29210000D01*
X27940000Y-29210000D02*
X30480000Y-29210000D01*
D16*
X27940000Y-29210000D02*
X27940000Y-29718000D01*
X30480000Y-29210000D02*
X30480000Y-32258000D01*
X27940000Y-29718000D02*
X30480000Y-32258000D01*
X33020000Y-29718000D02*
X30480000Y-32258000D01*
X33020000Y-29210000D02*
X33020000Y-29718000D01*
X27940000Y-40640000D02*
X27940000Y-40386000D01*
X27940000Y-40386000D02*
X30480000Y-37846000D01*
D17*
X30480000Y-32258000D02*
X30480000Y-37846000D01*
D16*
X30480000Y-37846000D02*
X30480000Y-40640000D01*
X33020000Y-40386000D02*
X30480000Y-37846000D01*
X33020000Y-40640000D02*
X33020000Y-40386000D01*
D18*
G36*
X43962249Y-13432437D02*
G01*
X44719774Y-13639672D01*
X45428625Y-13977777D01*
X46066404Y-14436067D01*
X46612946Y-15000055D01*
X47050977Y-15651913D01*
X47366651Y-16371038D01*
X47551206Y-17139768D01*
X47600000Y-17804207D01*
X47600001Y-52040597D01*
X47527563Y-52852249D01*
X47320328Y-53609774D01*
X46982221Y-54318627D01*
X46523928Y-54956410D01*
X45959945Y-55502946D01*
X45308085Y-55940978D01*
X44588963Y-56256651D01*
X43820232Y-56441206D01*
X43155792Y-56490000D01*
X17809392Y-56490000D01*
X16997751Y-56417563D01*
X16240226Y-56210328D01*
X15531373Y-55872221D01*
X14893590Y-55413928D01*
X14347054Y-54849945D01*
X13909022Y-54198085D01*
X13593349Y-53478963D01*
X13408794Y-52710232D01*
X13360000Y-52045792D01*
X13360000Y-51731682D01*
X14345000Y-51731682D01*
X14345000Y-52408318D01*
X14477006Y-53071952D01*
X14735943Y-53697082D01*
X15111862Y-54259685D01*
X15590315Y-54738138D01*
X16152918Y-55114057D01*
X16778048Y-55372994D01*
X17441682Y-55505000D01*
X18118318Y-55505000D01*
X18781952Y-55372994D01*
X19407082Y-55114057D01*
X19969685Y-54738138D01*
X20448138Y-54259685D01*
X20824057Y-53697082D01*
X21082994Y-53071952D01*
X21215000Y-52408318D01*
X21215000Y-51731682D01*
X21082994Y-51068048D01*
X20824057Y-50442918D01*
X20448138Y-49880315D01*
X19969685Y-49401862D01*
X19407082Y-49025943D01*
X18781952Y-48767006D01*
X18118318Y-48635000D01*
X17441682Y-48635000D01*
X16778048Y-48767006D01*
X16152918Y-49025943D01*
X15590315Y-49401862D01*
X15111862Y-49880315D01*
X14735943Y-50442918D01*
X14477006Y-51068048D01*
X14345000Y-51731682D01*
X13360000Y-51731682D01*
X13360000Y-33035000D01*
X22551928Y-33035000D01*
X22551928Y-34785000D01*
X22581001Y-35080186D01*
X22667104Y-35364028D01*
X22806927Y-35625618D01*
X22995097Y-35854903D01*
X23224382Y-36043073D01*
X23485972Y-36182896D01*
X23769814Y-36268999D01*
X24065000Y-36298072D01*
X25815000Y-36298072D01*
X26110186Y-36268999D01*
X26394028Y-36182896D01*
X26655618Y-36043073D01*
X26884903Y-35854903D01*
X27073073Y-35625618D01*
X27212896Y-35364028D01*
X27298999Y-35080186D01*
X27328072Y-34785000D01*
X27328072Y-33035000D01*
X27298999Y-32739814D01*
X27212896Y-32455972D01*
X27073073Y-32194382D01*
X26884903Y-31965097D01*
X26655618Y-31776927D01*
X26394028Y-31637104D01*
X26265357Y-31598072D01*
X27543189Y-31598072D01*
X28345000Y-32399884D01*
X28345001Y-37704115D01*
X27797189Y-38251928D01*
X26190000Y-38251928D01*
X26065518Y-38264188D01*
X25945820Y-38300498D01*
X25835506Y-38359463D01*
X25738815Y-38438815D01*
X25659463Y-38535506D01*
X25600498Y-38645820D01*
X25564188Y-38765518D01*
X25551928Y-38890000D01*
X25551928Y-42390000D01*
X25564188Y-42514482D01*
X25600498Y-42634180D01*
X25659463Y-42744494D01*
X25738815Y-42841185D01*
X25835506Y-42920537D01*
X25912131Y-42961494D01*
X25815000Y-42951928D01*
X24065000Y-42951928D01*
X23769814Y-42981001D01*
X23485972Y-43067104D01*
X23224382Y-43206927D01*
X22995097Y-43395097D01*
X22806927Y-43624382D01*
X22667104Y-43885972D01*
X22581001Y-44169814D01*
X22551928Y-44465000D01*
X22551928Y-46215000D01*
X22581001Y-46510186D01*
X22667104Y-46794028D01*
X22806927Y-47055618D01*
X22995097Y-47284903D01*
X23224382Y-47473073D01*
X23485972Y-47612896D01*
X23769814Y-47698999D01*
X24065000Y-47728072D01*
X25815000Y-47728072D01*
X26110186Y-47698999D01*
X26394028Y-47612896D01*
X26655618Y-47473073D01*
X26884903Y-47284903D01*
X27073073Y-47055618D01*
X27212896Y-46794028D01*
X27298999Y-46510186D01*
X27328072Y-46215000D01*
X27328072Y-44465000D01*
X27298999Y-44169814D01*
X27212896Y-43885972D01*
X27073073Y-43624382D01*
X26884903Y-43395097D01*
X26655618Y-43206927D01*
X26394028Y-43067104D01*
X26265357Y-43028072D01*
X29690000Y-43028072D01*
X29814482Y-43015812D01*
X29934180Y-42979502D01*
X30044494Y-42920537D01*
X30141185Y-42841185D01*
X30220537Y-42744494D01*
X30279502Y-42634180D01*
X30306554Y-42545000D01*
X30653446Y-42545000D01*
X30680498Y-42634180D01*
X30739463Y-42744494D01*
X30818815Y-42841185D01*
X30915506Y-42920537D01*
X31025820Y-42979502D01*
X31115001Y-43006555D01*
X31115000Y-50893581D01*
X31130842Y-51054427D01*
X31127988Y-51058698D01*
X30967047Y-51447244D01*
X30885000Y-51859721D01*
X30885000Y-52280279D01*
X30967047Y-52692756D01*
X31127988Y-53081302D01*
X31361637Y-53430983D01*
X31659017Y-53728363D01*
X32008698Y-53962012D01*
X32397244Y-54122953D01*
X32809721Y-54205000D01*
X33230279Y-54205000D01*
X33642756Y-54122953D01*
X34031302Y-53962012D01*
X34380983Y-53728363D01*
X34678363Y-53430983D01*
X34912012Y-53081302D01*
X35072953Y-52692756D01*
X35155000Y-52280279D01*
X35155000Y-51859721D01*
X35129532Y-51731682D01*
X39745000Y-51731682D01*
X39745000Y-52408318D01*
X39877006Y-53071952D01*
X40135943Y-53697082D01*
X40511862Y-54259685D01*
X40990315Y-54738138D01*
X41552918Y-55114057D01*
X42178048Y-55372994D01*
X42841682Y-55505000D01*
X43518318Y-55505000D01*
X44181952Y-55372994D01*
X44807082Y-55114057D01*
X45369685Y-54738138D01*
X45848138Y-54259685D01*
X46224057Y-53697082D01*
X46482994Y-53071952D01*
X46615000Y-52408318D01*
X46615000Y-51731682D01*
X46482994Y-51068048D01*
X46224057Y-50442918D01*
X45848138Y-49880315D01*
X45369685Y-49401862D01*
X44807082Y-49025943D01*
X44181952Y-48767006D01*
X43518318Y-48635000D01*
X42841682Y-48635000D01*
X42178048Y-48767006D01*
X41552918Y-49025943D01*
X40990315Y-49401862D01*
X40511862Y-49880315D01*
X40135943Y-50442918D01*
X39877006Y-51068048D01*
X39745000Y-51731682D01*
X35129532Y-51731682D01*
X35072953Y-51447244D01*
X34912012Y-51058698D01*
X34909158Y-51054427D01*
X34925000Y-50893582D01*
X34925000Y-43006554D01*
X35014180Y-42979502D01*
X35124494Y-42920537D01*
X35221185Y-42841185D01*
X35300537Y-42744494D01*
X35359502Y-42634180D01*
X35395812Y-42514482D01*
X35408072Y-42390000D01*
X35408072Y-38890000D01*
X35395812Y-38765518D01*
X35359502Y-38645820D01*
X35300537Y-38535506D01*
X35221185Y-38438815D01*
X35124494Y-38359463D01*
X35047869Y-38318506D01*
X35145000Y-38328072D01*
X36895000Y-38328072D01*
X37190186Y-38298999D01*
X37474028Y-38212896D01*
X37735618Y-38073073D01*
X37964903Y-37884903D01*
X38153073Y-37655618D01*
X38292896Y-37394028D01*
X38378999Y-37110186D01*
X38408072Y-36815000D01*
X38408072Y-35065000D01*
X38378999Y-34769814D01*
X38292896Y-34485972D01*
X38153073Y-34224382D01*
X37964903Y-33995097D01*
X37735618Y-33806927D01*
X37474028Y-33667104D01*
X37190186Y-33581001D01*
X36895000Y-33551928D01*
X35145000Y-33551928D01*
X34849814Y-33581001D01*
X34565972Y-33667104D01*
X34304382Y-33806927D01*
X34075097Y-33995097D01*
X33886927Y-34224382D01*
X33747104Y-34485972D01*
X33661001Y-34769814D01*
X33631928Y-35065000D01*
X33631928Y-36815000D01*
X33661001Y-37110186D01*
X33747104Y-37394028D01*
X33886927Y-37655618D01*
X34075097Y-37884903D01*
X34304382Y-38073073D01*
X34565972Y-38212896D01*
X34694643Y-38251928D01*
X33162812Y-38251928D01*
X32615000Y-37704117D01*
X32615000Y-32399883D01*
X33416812Y-31598072D01*
X34770000Y-31598072D01*
X34894482Y-31585812D01*
X35014180Y-31549502D01*
X35124494Y-31490537D01*
X35221185Y-31411185D01*
X35300537Y-31314494D01*
X35359502Y-31204180D01*
X35395812Y-31084482D01*
X35408072Y-30960000D01*
X35408072Y-27460000D01*
X35395812Y-27335518D01*
X35359502Y-27215820D01*
X35300537Y-27105506D01*
X35221185Y-27008815D01*
X35124494Y-26929463D01*
X35047869Y-26888506D01*
X35145000Y-26898072D01*
X36895000Y-26898072D01*
X37190186Y-26868999D01*
X37474028Y-26782896D01*
X37735618Y-26643073D01*
X37964903Y-26454903D01*
X38153073Y-26225618D01*
X38292896Y-25964028D01*
X38378999Y-25680186D01*
X38408072Y-25385000D01*
X38408072Y-23635000D01*
X38378999Y-23339814D01*
X38292896Y-23055972D01*
X38153073Y-22794382D01*
X37964903Y-22565097D01*
X37735618Y-22376927D01*
X37474028Y-22237104D01*
X37190186Y-22151001D01*
X36895000Y-22121928D01*
X35145000Y-22121928D01*
X34849814Y-22151001D01*
X34565972Y-22237104D01*
X34304382Y-22376927D01*
X34075097Y-22565097D01*
X33886927Y-22794382D01*
X33747104Y-23055972D01*
X33661001Y-23339814D01*
X33631928Y-23635000D01*
X33631928Y-25385000D01*
X33661001Y-25680186D01*
X33747104Y-25964028D01*
X33886927Y-26225618D01*
X34075097Y-26454903D01*
X34304382Y-26643073D01*
X34565972Y-26782896D01*
X34694643Y-26821928D01*
X31270000Y-26821928D01*
X31145518Y-26834188D01*
X31025820Y-26870498D01*
X30915506Y-26929463D01*
X30818815Y-27008815D01*
X30739463Y-27105506D01*
X30680498Y-27215820D01*
X30653446Y-27305000D01*
X30306554Y-27305000D01*
X30279502Y-27215820D01*
X30220537Y-27105506D01*
X30141185Y-27008815D01*
X30044494Y-26929463D01*
X29934180Y-26870498D01*
X29845000Y-26843446D01*
X29845000Y-19769088D01*
X29891185Y-19731185D01*
X29970537Y-19634494D01*
X30029502Y-19524180D01*
X30065812Y-19404482D01*
X30078072Y-19280000D01*
X30078072Y-17441682D01*
X39745000Y-17441682D01*
X39745000Y-18118318D01*
X39877006Y-18781952D01*
X40135943Y-19407082D01*
X40511862Y-19969685D01*
X40990315Y-20448138D01*
X41552918Y-20824057D01*
X42178048Y-21082994D01*
X42841682Y-21215000D01*
X43518318Y-21215000D01*
X44181952Y-21082994D01*
X44807082Y-20824057D01*
X45369685Y-20448138D01*
X45848138Y-19969685D01*
X46224057Y-19407082D01*
X46482994Y-18781952D01*
X46615000Y-18118318D01*
X46615000Y-17441682D01*
X46482994Y-16778048D01*
X46224057Y-16152918D01*
X45848138Y-15590315D01*
X45369685Y-15111862D01*
X44807082Y-14735943D01*
X44181952Y-14477006D01*
X43518318Y-14345000D01*
X42841682Y-14345000D01*
X42178048Y-14477006D01*
X41552918Y-14735943D01*
X40990315Y-15111862D01*
X40511862Y-15590315D01*
X40135943Y-16152918D01*
X39877006Y-16778048D01*
X39745000Y-17441682D01*
X30078072Y-17441682D01*
X30078072Y-16280000D01*
X30065812Y-16155518D01*
X30029502Y-16035820D01*
X29970537Y-15925506D01*
X29891185Y-15828815D01*
X29794494Y-15749463D01*
X29684180Y-15690498D01*
X29564482Y-15654188D01*
X29440000Y-15641928D01*
X26440000Y-15641928D01*
X26315518Y-15654188D01*
X26195820Y-15690498D01*
X26085506Y-15749463D01*
X25988815Y-15828815D01*
X25909463Y-15925506D01*
X25850498Y-16035820D01*
X25814188Y-16155518D01*
X25801928Y-16280000D01*
X25801928Y-19280000D01*
X25814188Y-19404482D01*
X25850498Y-19524180D01*
X25909463Y-19634494D01*
X25988815Y-19731185D01*
X26035000Y-19769088D01*
X26035001Y-26843445D01*
X25945820Y-26870498D01*
X25835506Y-26929463D01*
X25738815Y-27008815D01*
X25659463Y-27105506D01*
X25600498Y-27215820D01*
X25564188Y-27335518D01*
X25551928Y-27460000D01*
X25551928Y-30960000D01*
X25564188Y-31084482D01*
X25600498Y-31204180D01*
X25659463Y-31314494D01*
X25738815Y-31411185D01*
X25835506Y-31490537D01*
X25912131Y-31531494D01*
X25815000Y-31521928D01*
X24065000Y-31521928D01*
X23769814Y-31551001D01*
X23485972Y-31637104D01*
X23224382Y-31776927D01*
X22995097Y-31965097D01*
X22806927Y-32194382D01*
X22667104Y-32455972D01*
X22581001Y-32739814D01*
X22551928Y-33035000D01*
X13360000Y-33035000D01*
X13360000Y-17809392D01*
X13392817Y-17441682D01*
X14345000Y-17441682D01*
X14345000Y-18118318D01*
X14477006Y-18781952D01*
X14735943Y-19407082D01*
X15111862Y-19969685D01*
X15590315Y-20448138D01*
X16152918Y-20824057D01*
X16778048Y-21082994D01*
X17441682Y-21215000D01*
X18118318Y-21215000D01*
X18781952Y-21082994D01*
X19407082Y-20824057D01*
X19969685Y-20448138D01*
X20448138Y-19969685D01*
X20824057Y-19407082D01*
X21082994Y-18781952D01*
X21215000Y-18118318D01*
X21215000Y-17441682D01*
X21082994Y-16778048D01*
X20824057Y-16152918D01*
X20448138Y-15590315D01*
X19969685Y-15111862D01*
X19407082Y-14735943D01*
X18781952Y-14477006D01*
X18118318Y-14345000D01*
X17441682Y-14345000D01*
X16778048Y-14477006D01*
X16152918Y-14735943D01*
X15590315Y-15111862D01*
X15111862Y-15590315D01*
X14735943Y-16152918D01*
X14477006Y-16778048D01*
X14345000Y-17441682D01*
X13392817Y-17441682D01*
X13432437Y-16997751D01*
X13639672Y-16240226D01*
X13977777Y-15531375D01*
X14436067Y-14893596D01*
X15000055Y-14347054D01*
X15651913Y-13909023D01*
X16371038Y-13593349D01*
X17139768Y-13408794D01*
X17804207Y-13360000D01*
X43150608Y-13360000D01*
X43962249Y-13432437D01*
G37*
X43962249Y-13432437D02*
X44719774Y-13639672D01*
X45428625Y-13977777D01*
X46066404Y-14436067D01*
X46612946Y-15000055D01*
X47050977Y-15651913D01*
X47366651Y-16371038D01*
X47551206Y-17139768D01*
X47600000Y-17804207D01*
X47600001Y-52040597D01*
X47527563Y-52852249D01*
X47320328Y-53609774D01*
X46982221Y-54318627D01*
X46523928Y-54956410D01*
X45959945Y-55502946D01*
X45308085Y-55940978D01*
X44588963Y-56256651D01*
X43820232Y-56441206D01*
X43155792Y-56490000D01*
X17809392Y-56490000D01*
X16997751Y-56417563D01*
X16240226Y-56210328D01*
X15531373Y-55872221D01*
X14893590Y-55413928D01*
X14347054Y-54849945D01*
X13909022Y-54198085D01*
X13593349Y-53478963D01*
X13408794Y-52710232D01*
X13360000Y-52045792D01*
X13360000Y-51731682D01*
X14345000Y-51731682D01*
X14345000Y-52408318D01*
X14477006Y-53071952D01*
X14735943Y-53697082D01*
X15111862Y-54259685D01*
X15590315Y-54738138D01*
X16152918Y-55114057D01*
X16778048Y-55372994D01*
X17441682Y-55505000D01*
X18118318Y-55505000D01*
X18781952Y-55372994D01*
X19407082Y-55114057D01*
X19969685Y-54738138D01*
X20448138Y-54259685D01*
X20824057Y-53697082D01*
X21082994Y-53071952D01*
X21215000Y-52408318D01*
X21215000Y-51731682D01*
X21082994Y-51068048D01*
X20824057Y-50442918D01*
X20448138Y-49880315D01*
X19969685Y-49401862D01*
X19407082Y-49025943D01*
X18781952Y-48767006D01*
X18118318Y-48635000D01*
X17441682Y-48635000D01*
X16778048Y-48767006D01*
X16152918Y-49025943D01*
X15590315Y-49401862D01*
X15111862Y-49880315D01*
X14735943Y-50442918D01*
X14477006Y-51068048D01*
X14345000Y-51731682D01*
X13360000Y-51731682D01*
X13360000Y-33035000D01*
X22551928Y-33035000D01*
X22551928Y-34785000D01*
X22581001Y-35080186D01*
X22667104Y-35364028D01*
X22806927Y-35625618D01*
X22995097Y-35854903D01*
X23224382Y-36043073D01*
X23485972Y-36182896D01*
X23769814Y-36268999D01*
X24065000Y-36298072D01*
X25815000Y-36298072D01*
X26110186Y-36268999D01*
X26394028Y-36182896D01*
X26655618Y-36043073D01*
X26884903Y-35854903D01*
X27073073Y-35625618D01*
X27212896Y-35364028D01*
X27298999Y-35080186D01*
X27328072Y-34785000D01*
X27328072Y-33035000D01*
X27298999Y-32739814D01*
X27212896Y-32455972D01*
X27073073Y-32194382D01*
X26884903Y-31965097D01*
X26655618Y-31776927D01*
X26394028Y-31637104D01*
X26265357Y-31598072D01*
X27543189Y-31598072D01*
X28345000Y-32399884D01*
X28345001Y-37704115D01*
X27797189Y-38251928D01*
X26190000Y-38251928D01*
X26065518Y-38264188D01*
X25945820Y-38300498D01*
X25835506Y-38359463D01*
X25738815Y-38438815D01*
X25659463Y-38535506D01*
X25600498Y-38645820D01*
X25564188Y-38765518D01*
X25551928Y-38890000D01*
X25551928Y-42390000D01*
X25564188Y-42514482D01*
X25600498Y-42634180D01*
X25659463Y-42744494D01*
X25738815Y-42841185D01*
X25835506Y-42920537D01*
X25912131Y-42961494D01*
X25815000Y-42951928D01*
X24065000Y-42951928D01*
X23769814Y-42981001D01*
X23485972Y-43067104D01*
X23224382Y-43206927D01*
X22995097Y-43395097D01*
X22806927Y-43624382D01*
X22667104Y-43885972D01*
X22581001Y-44169814D01*
X22551928Y-44465000D01*
X22551928Y-46215000D01*
X22581001Y-46510186D01*
X22667104Y-46794028D01*
X22806927Y-47055618D01*
X22995097Y-47284903D01*
X23224382Y-47473073D01*
X23485972Y-47612896D01*
X23769814Y-47698999D01*
X24065000Y-47728072D01*
X25815000Y-47728072D01*
X26110186Y-47698999D01*
X26394028Y-47612896D01*
X26655618Y-47473073D01*
X26884903Y-47284903D01*
X27073073Y-47055618D01*
X27212896Y-46794028D01*
X27298999Y-46510186D01*
X27328072Y-46215000D01*
X27328072Y-44465000D01*
X27298999Y-44169814D01*
X27212896Y-43885972D01*
X27073073Y-43624382D01*
X26884903Y-43395097D01*
X26655618Y-43206927D01*
X26394028Y-43067104D01*
X26265357Y-43028072D01*
X29690000Y-43028072D01*
X29814482Y-43015812D01*
X29934180Y-42979502D01*
X30044494Y-42920537D01*
X30141185Y-42841185D01*
X30220537Y-42744494D01*
X30279502Y-42634180D01*
X30306554Y-42545000D01*
X30653446Y-42545000D01*
X30680498Y-42634180D01*
X30739463Y-42744494D01*
X30818815Y-42841185D01*
X30915506Y-42920537D01*
X31025820Y-42979502D01*
X31115001Y-43006555D01*
X31115000Y-50893581D01*
X31130842Y-51054427D01*
X31127988Y-51058698D01*
X30967047Y-51447244D01*
X30885000Y-51859721D01*
X30885000Y-52280279D01*
X30967047Y-52692756D01*
X31127988Y-53081302D01*
X31361637Y-53430983D01*
X31659017Y-53728363D01*
X32008698Y-53962012D01*
X32397244Y-54122953D01*
X32809721Y-54205000D01*
X33230279Y-54205000D01*
X33642756Y-54122953D01*
X34031302Y-53962012D01*
X34380983Y-53728363D01*
X34678363Y-53430983D01*
X34912012Y-53081302D01*
X35072953Y-52692756D01*
X35155000Y-52280279D01*
X35155000Y-51859721D01*
X35129532Y-51731682D01*
X39745000Y-51731682D01*
X39745000Y-52408318D01*
X39877006Y-53071952D01*
X40135943Y-53697082D01*
X40511862Y-54259685D01*
X40990315Y-54738138D01*
X41552918Y-55114057D01*
X42178048Y-55372994D01*
X42841682Y-55505000D01*
X43518318Y-55505000D01*
X44181952Y-55372994D01*
X44807082Y-55114057D01*
X45369685Y-54738138D01*
X45848138Y-54259685D01*
X46224057Y-53697082D01*
X46482994Y-53071952D01*
X46615000Y-52408318D01*
X46615000Y-51731682D01*
X46482994Y-51068048D01*
X46224057Y-50442918D01*
X45848138Y-49880315D01*
X45369685Y-49401862D01*
X44807082Y-49025943D01*
X44181952Y-48767006D01*
X43518318Y-48635000D01*
X42841682Y-48635000D01*
X42178048Y-48767006D01*
X41552918Y-49025943D01*
X40990315Y-49401862D01*
X40511862Y-49880315D01*
X40135943Y-50442918D01*
X39877006Y-51068048D01*
X39745000Y-51731682D01*
X35129532Y-51731682D01*
X35072953Y-51447244D01*
X34912012Y-51058698D01*
X34909158Y-51054427D01*
X34925000Y-50893582D01*
X34925000Y-43006554D01*
X35014180Y-42979502D01*
X35124494Y-42920537D01*
X35221185Y-42841185D01*
X35300537Y-42744494D01*
X35359502Y-42634180D01*
X35395812Y-42514482D01*
X35408072Y-42390000D01*
X35408072Y-38890000D01*
X35395812Y-38765518D01*
X35359502Y-38645820D01*
X35300537Y-38535506D01*
X35221185Y-38438815D01*
X35124494Y-38359463D01*
X35047869Y-38318506D01*
X35145000Y-38328072D01*
X36895000Y-38328072D01*
X37190186Y-38298999D01*
X37474028Y-38212896D01*
X37735618Y-38073073D01*
X37964903Y-37884903D01*
X38153073Y-37655618D01*
X38292896Y-37394028D01*
X38378999Y-37110186D01*
X38408072Y-36815000D01*
X38408072Y-35065000D01*
X38378999Y-34769814D01*
X38292896Y-34485972D01*
X38153073Y-34224382D01*
X37964903Y-33995097D01*
X37735618Y-33806927D01*
X37474028Y-33667104D01*
X37190186Y-33581001D01*
X36895000Y-33551928D01*
X35145000Y-33551928D01*
X34849814Y-33581001D01*
X34565972Y-33667104D01*
X34304382Y-33806927D01*
X34075097Y-33995097D01*
X33886927Y-34224382D01*
X33747104Y-34485972D01*
X33661001Y-34769814D01*
X33631928Y-35065000D01*
X33631928Y-36815000D01*
X33661001Y-37110186D01*
X33747104Y-37394028D01*
X33886927Y-37655618D01*
X34075097Y-37884903D01*
X34304382Y-38073073D01*
X34565972Y-38212896D01*
X34694643Y-38251928D01*
X33162812Y-38251928D01*
X32615000Y-37704117D01*
X32615000Y-32399883D01*
X33416812Y-31598072D01*
X34770000Y-31598072D01*
X34894482Y-31585812D01*
X35014180Y-31549502D01*
X35124494Y-31490537D01*
X35221185Y-31411185D01*
X35300537Y-31314494D01*
X35359502Y-31204180D01*
X35395812Y-31084482D01*
X35408072Y-30960000D01*
X35408072Y-27460000D01*
X35395812Y-27335518D01*
X35359502Y-27215820D01*
X35300537Y-27105506D01*
X35221185Y-27008815D01*
X35124494Y-26929463D01*
X35047869Y-26888506D01*
X35145000Y-26898072D01*
X36895000Y-26898072D01*
X37190186Y-26868999D01*
X37474028Y-26782896D01*
X37735618Y-26643073D01*
X37964903Y-26454903D01*
X38153073Y-26225618D01*
X38292896Y-25964028D01*
X38378999Y-25680186D01*
X38408072Y-25385000D01*
X38408072Y-23635000D01*
X38378999Y-23339814D01*
X38292896Y-23055972D01*
X38153073Y-22794382D01*
X37964903Y-22565097D01*
X37735618Y-22376927D01*
X37474028Y-22237104D01*
X37190186Y-22151001D01*
X36895000Y-22121928D01*
X35145000Y-22121928D01*
X34849814Y-22151001D01*
X34565972Y-22237104D01*
X34304382Y-22376927D01*
X34075097Y-22565097D01*
X33886927Y-22794382D01*
X33747104Y-23055972D01*
X33661001Y-23339814D01*
X33631928Y-23635000D01*
X33631928Y-25385000D01*
X33661001Y-25680186D01*
X33747104Y-25964028D01*
X33886927Y-26225618D01*
X34075097Y-26454903D01*
X34304382Y-26643073D01*
X34565972Y-26782896D01*
X34694643Y-26821928D01*
X31270000Y-26821928D01*
X31145518Y-26834188D01*
X31025820Y-26870498D01*
X30915506Y-26929463D01*
X30818815Y-27008815D01*
X30739463Y-27105506D01*
X30680498Y-27215820D01*
X30653446Y-27305000D01*
X30306554Y-27305000D01*
X30279502Y-27215820D01*
X30220537Y-27105506D01*
X30141185Y-27008815D01*
X30044494Y-26929463D01*
X29934180Y-26870498D01*
X29845000Y-26843446D01*
X29845000Y-19769088D01*
X29891185Y-19731185D01*
X29970537Y-19634494D01*
X30029502Y-19524180D01*
X30065812Y-19404482D01*
X30078072Y-19280000D01*
X30078072Y-17441682D01*
X39745000Y-17441682D01*
X39745000Y-18118318D01*
X39877006Y-18781952D01*
X40135943Y-19407082D01*
X40511862Y-19969685D01*
X40990315Y-20448138D01*
X41552918Y-20824057D01*
X42178048Y-21082994D01*
X42841682Y-21215000D01*
X43518318Y-21215000D01*
X44181952Y-21082994D01*
X44807082Y-20824057D01*
X45369685Y-20448138D01*
X45848138Y-19969685D01*
X46224057Y-19407082D01*
X46482994Y-18781952D01*
X46615000Y-18118318D01*
X46615000Y-17441682D01*
X46482994Y-16778048D01*
X46224057Y-16152918D01*
X45848138Y-15590315D01*
X45369685Y-15111862D01*
X44807082Y-14735943D01*
X44181952Y-14477006D01*
X43518318Y-14345000D01*
X42841682Y-14345000D01*
X42178048Y-14477006D01*
X41552918Y-14735943D01*
X40990315Y-15111862D01*
X40511862Y-15590315D01*
X40135943Y-16152918D01*
X39877006Y-16778048D01*
X39745000Y-17441682D01*
X30078072Y-17441682D01*
X30078072Y-16280000D01*
X30065812Y-16155518D01*
X30029502Y-16035820D01*
X29970537Y-15925506D01*
X29891185Y-15828815D01*
X29794494Y-15749463D01*
X29684180Y-15690498D01*
X29564482Y-15654188D01*
X29440000Y-15641928D01*
X26440000Y-15641928D01*
X26315518Y-15654188D01*
X26195820Y-15690498D01*
X26085506Y-15749463D01*
X25988815Y-15828815D01*
X25909463Y-15925506D01*
X25850498Y-16035820D01*
X25814188Y-16155518D01*
X25801928Y-16280000D01*
X25801928Y-19280000D01*
X25814188Y-19404482D01*
X25850498Y-19524180D01*
X25909463Y-19634494D01*
X25988815Y-19731185D01*
X26035000Y-19769088D01*
X26035001Y-26843445D01*
X25945820Y-26870498D01*
X25835506Y-26929463D01*
X25738815Y-27008815D01*
X25659463Y-27105506D01*
X25600498Y-27215820D01*
X25564188Y-27335518D01*
X25551928Y-27460000D01*
X25551928Y-30960000D01*
X25564188Y-31084482D01*
X25600498Y-31204180D01*
X25659463Y-31314494D01*
X25738815Y-31411185D01*
X25835506Y-31490537D01*
X25912131Y-31531494D01*
X25815000Y-31521928D01*
X24065000Y-31521928D01*
X23769814Y-31551001D01*
X23485972Y-31637104D01*
X23224382Y-31776927D01*
X22995097Y-31965097D01*
X22806927Y-32194382D01*
X22667104Y-32455972D01*
X22581001Y-32739814D01*
X22551928Y-33035000D01*
X13360000Y-33035000D01*
X13360000Y-17809392D01*
X13392817Y-17441682D01*
X14345000Y-17441682D01*
X14345000Y-18118318D01*
X14477006Y-18781952D01*
X14735943Y-19407082D01*
X15111862Y-19969685D01*
X15590315Y-20448138D01*
X16152918Y-20824057D01*
X16778048Y-21082994D01*
X17441682Y-21215000D01*
X18118318Y-21215000D01*
X18781952Y-21082994D01*
X19407082Y-20824057D01*
X19969685Y-20448138D01*
X20448138Y-19969685D01*
X20824057Y-19407082D01*
X21082994Y-18781952D01*
X21215000Y-18118318D01*
X21215000Y-17441682D01*
X21082994Y-16778048D01*
X20824057Y-16152918D01*
X20448138Y-15590315D01*
X19969685Y-15111862D01*
X19407082Y-14735943D01*
X18781952Y-14477006D01*
X18118318Y-14345000D01*
X17441682Y-14345000D01*
X16778048Y-14477006D01*
X16152918Y-14735943D01*
X15590315Y-15111862D01*
X15111862Y-15590315D01*
X14735943Y-16152918D01*
X14477006Y-16778048D01*
X14345000Y-17441682D01*
X13392817Y-17441682D01*
X13432437Y-16997751D01*
X13639672Y-16240226D01*
X13977777Y-15531375D01*
X14436067Y-14893596D01*
X15000055Y-14347054D01*
X15651913Y-13909023D01*
X16371038Y-13593349D01*
X17139768Y-13408794D01*
X17804207Y-13360000D01*
X43150608Y-13360000D01*
X43962249Y-13432437D01*
M02*
