%
S20000
G20
G90
G94
F4.00
G00 Z0.1000
M03 S20000
G4 P1
G00 Z1.0000
T1
M5
M6
(MSG, Change to tool dia=0.0394)
M0
M03 S20000
G4 P1
G00 X0.8638Y-1.5606
G01 Z-0.1000
G01 Z0
G00 Z0.1000
G00 X0.8638Y-1.6394
G01 Z-0.1000
G01 Z0
G00 Z0.1000
G00 X0.9425Y-1.7850
G01 Z-0.1000
G01 Z0
G00 Z0.1000
G00 X1.0213Y-1.7850
G01 Z-0.1000
G01 Z0
G00 Z0.1000
G00 X1.1000Y-1.5606
G01 Z-0.1000
G01 Z0
G00 Z0.1000
G00 X1.1000Y-1.6394
G01 Z-0.1000
G01 Z0
G00 Z0.1000
G00 X0.8638Y-1.1106
G01 Z-0.1000
G01 Z0
G00 Z0.1000
G00 X0.8638Y-1.1894
G01 Z-0.1000
G01 Z0
G00 Z0.1000
G00 X0.9425Y-1.3350
G01 Z-0.1000
G01 Z0
G00 Z0.1000
G00 X1.0213Y-1.3350
G01 Z-0.1000
G01 Z0
G00 Z0.1000
G00 X1.1000Y-1.1106
G01 Z-0.1000
G01 Z0
G00 Z0.1000
G00 X1.1000Y-1.1894
G01 Z-0.1000
G01 Z0
G00 Z0.1000
G00 X1.3000Y-1.1894
G01 Z-0.1000
G01 Z0
G00 Z0.1000
G00 X1.3000Y-1.1106
G01 Z-0.1000
G01 Z0
G00 Z0.1000
G00 X1.4575Y-0.9650
G01 Z-0.1000
G01 Z0
G00 Z0.1000
G00 X1.3787Y-0.9650
G01 Z-0.1000
G01 Z0
G00 Z0.1000
G00 X1.5362Y-1.1894
G01 Z-0.1000
G01 Z0
G00 Z0.1000
G00 X1.5362Y-1.1106
G01 Z-0.1000
G01 Z0
G00 Z0.1000
G00 X1.3000Y-1.6394
G01 Z-0.1000
G01 Z0
G00 Z0.1000
G00 X1.3000Y-1.5606
G01 Z-0.1000
G01 Z0
G00 Z0.1000
G00 X1.4575Y-1.4150
G01 Z-0.1000
G01 Z0
G00 Z0.1000
G00 X1.3787Y-1.4150
G01 Z-0.1000
G01 Z0
G00 Z0.1000
G00 X1.5362Y-1.6394
G01 Z-0.1000
G01 Z0
G00 Z0.1000
G00 X1.5362Y-1.5606
G01 Z-0.1000
G01 Z0
G00 Z0.1000
G00 Z1.0000
T2
M5
M6
(MSG, Change to tool dia=0.0598)
M0
M03 S20000
G4 P1
G00 X1.1000Y-2.0500
G01 Z-0.1000
G01 Z0
G00 Z0.1000
G00 X1.3000Y-2.0500
G01 Z-0.1000
G01 Z0
G00 Z0.1000
G00 X1.1000Y-0.7000
G01 Z-0.1000
G01 Z0
G00 Z0.1000
G00 X1.3000Y-0.7000
G01 Z-0.1000
G01 Z0
G00 Z0.1000
G00 Z1.0000
T3
M5
M6
(MSG, Change to tool dia=0.1260)
M0
M03 S20000
G4 P1
G00 X1.7000Y-0.7000
G01 Z-0.1000
G01 Z0
G00 Z0.1000
G00 X1.7000Y-2.0500
G01 Z-0.1000
G01 Z0
G00 Z0.1000
G00 X0.7000Y-2.0500
G01 Z-0.1000
G01 Z0
G00 Z0.1000
G00 X0.7000Y-0.7000
G01 Z-0.1000
G01 Z0
G00 Z0.1000
G00 X0.0000Y0.0000
M05
%